com/distribution/net/controllers/responses/Message.class
com/distribution/net/controllers/exceptions/UserNotFound.class
com/distribution/net/controllers/UserJpaResource.class
com/distribution/net/controllers/exceptions/CustomResponseEntityExceptionHandler.class
com/distribution/net/versioning/beans/PersonV2.class
com/distribution/net/repository/PostRepository.class
com/distribution/net/beans/User.class
com/distribution/net/dao_service/UserDaoService.class
com/distribution/net/controllers/UserResource.class
com/distribution/net/versioning/beans/Name.class
com/distribution/net/versioning/service/PersonResource.class
com/distribution/net/repository/UserRepository.class
com/distribution/net/versioning/Dummy.class
com/distribution/net/controllers/exceptions/ExceptionResponseTemplate.class
com/distribution/net/DataDistributionServiceApplication.class
com/distribution/net/controllers/exceptions/UuidNotDefined.class
com/distribution/net/versioning/beans/PersonV1.class
com/distribution/net/beans/Post.class
com/distribution/net/controllers/HalloContoller.class
com/distribution/net/beans/HalloWorldBean.class
com/distribution/net/config/SwaggerConfig.class
